%YAML 1.1
%TAG !u! tag:unity3d.com,2011:
--- !u!1045 &1
EditorBuildSettings:
  m_ObjectHideFlags: 0
  serializedVersion: 2
  m_Scenes:
  - enabled: 1
    path: Assets/Scenes/Intro.unity
    guid: 97a1c7ab03c1b7d47ba681e729cdda4e
  - enabled: 1
    path: Assets/Scenes/Menu.unity
    guid: 162abd4f6bdcf29428fb24f3e7581b5c
  - enabled: 1
    path: Assets/Scenes/RodrigoPlayGround.unity
    guid: f8accccb941952344897306ffc41fbbe
  m_configObjects: {}
